('C:\\Users\\ruanr\\Documents\\Viseu\\R5\\RPA\\orquestrador-fgts-simulador\\build\\scheduler\\scheduler.pkg',
 {'BINARY': 1,
  'DATA': 1,
  'EXECUTABLE': 1,
  'EXTENSION': 1,
  'PYMODULE': 1,
  'PYSOURCE': 1,
  'PYZ': 0,
  'SPLASH': 1},
 [('PYZ-00.pyz',
   'C:\\Users\\ruanr\\Documents\\Viseu\\R5\\RPA\\orquestrador-fgts-simulador\\build\\scheduler\\PYZ-00.pyz',
   'PYZ'),
  ('struct',
   'C:\\Users\\ruanr\\AppData\\Local\\Programs\\Python\\Python39\\lib\\struct.pyo',
   'PYMODULE'),
  ('pyimod01_os_path',
   'C:\\Users\\ruanr\\AppData\\Local\\Programs\\Python\\Python39\\lib\\site-packages\\PyInstaller\\loader\\pyimod01_os_path.pyc',
   'PYMODULE'),
  ('pyimod02_archive',
   'C:\\Users\\ruanr\\AppData\\Local\\Programs\\Python\\Python39\\lib\\site-packages\\PyInstaller\\loader\\pyimod02_archive.pyc',
   'PYMODULE'),
  ('pyimod03_importers',
   'C:\\Users\\ruanr\\AppData\\Local\\Programs\\Python\\Python39\\lib\\site-packages\\PyInstaller\\loader\\pyimod03_importers.pyc',
   'PYMODULE'),
  ('pyimod04_ctypes',
   'C:\\Users\\ruanr\\AppData\\Local\\Programs\\Python\\Python39\\lib\\site-packages\\PyInstaller\\loader\\pyimod04_ctypes.pyc',
   'PYMODULE'),
  ('pyiboot01_bootstrap',
   'C:\\Users\\ruanr\\AppData\\Local\\Programs\\Python\\Python39\\lib\\site-packages\\PyInstaller\\loader\\pyiboot01_bootstrap.py',
   'PYSOURCE'),
  ('pyi_rth_pkgutil',
   'C:\\Users\\ruanr\\AppData\\Local\\Programs\\Python\\Python39\\Lib\\site-packages\\PyInstaller\\hooks\\rthooks\\pyi_rth_pkgutil.py',
   'PYSOURCE'),
  ('pyi_rth_multiprocessing',
   'C:\\Users\\ruanr\\AppData\\Local\\Programs\\Python\\Python39\\Lib\\site-packages\\PyInstaller\\hooks\\rthooks\\pyi_rth_multiprocessing.py',
   'PYSOURCE'),
  ('pyi_rth_inspect',
   'C:\\Users\\ruanr\\AppData\\Local\\Programs\\Python\\Python39\\Lib\\site-packages\\PyInstaller\\hooks\\rthooks\\pyi_rth_inspect.py',
   'PYSOURCE'),
  ('scheduler',
   'C:\\Users\\ruanr\\Documents\\Viseu\\R5\\RPA\\orquestrador-fgts-simulador\\scheduler.py',
   'PYSOURCE'),
  ('python39.dll',
   'C:\\Users\\ruanr\\AppData\\Local\\Programs\\Python\\Python39\\python39.dll',
   'BINARY'),
  ('VCRUNTIME140.dll',
   'C:\\Users\\ruanr\\AppData\\Local\\Programs\\Python\\Python39\\VCRUNTIME140.dll',
   'BINARY'),
  ('select',
   'C:\\Users\\ruanr\\AppData\\Local\\Programs\\Python\\Python39\\DLLs\\select.pyd',
   'EXTENSION'),
  ('_decimal',
   'C:\\Users\\ruanr\\AppData\\Local\\Programs\\Python\\Python39\\DLLs\\_decimal.pyd',
   'EXTENSION'),
  ('_socket',
   'C:\\Users\\ruanr\\AppData\\Local\\Programs\\Python\\Python39\\DLLs\\_socket.pyd',
   'EXTENSION'),
  ('_overlapped',
   'C:\\Users\\ruanr\\AppData\\Local\\Programs\\Python\\Python39\\DLLs\\_overlapped.pyd',
   'EXTENSION'),
  ('_ssl',
   'C:\\Users\\ruanr\\AppData\\Local\\Programs\\Python\\Python39\\DLLs\\_ssl.pyd',
   'EXTENSION'),
  ('_asyncio',
   'C:\\Users\\ruanr\\AppData\\Local\\Programs\\Python\\Python39\\DLLs\\_asyncio.pyd',
   'EXTENSION'),
  ('_queue',
   'C:\\Users\\ruanr\\AppData\\Local\\Programs\\Python\\Python39\\DLLs\\_queue.pyd',
   'EXTENSION'),
  ('_ctypes',
   'C:\\Users\\ruanr\\AppData\\Local\\Programs\\Python\\Python39\\DLLs\\_ctypes.pyd',
   'EXTENSION'),
  ('_multiprocessing',
   'C:\\Users\\ruanr\\AppData\\Local\\Programs\\Python\\Python39\\DLLs\\_multiprocessing.pyd',
   'EXTENSION'),
  ('pyexpat',
   'C:\\Users\\ruanr\\AppData\\Local\\Programs\\Python\\Python39\\DLLs\\pyexpat.pyd',
   'EXTENSION'),
  ('unicodedata',
   'C:\\Users\\ruanr\\AppData\\Local\\Programs\\Python\\Python39\\DLLs\\unicodedata.pyd',
   'EXTENSION'),
  ('_hashlib',
   'C:\\Users\\ruanr\\AppData\\Local\\Programs\\Python\\Python39\\DLLs\\_hashlib.pyd',
   'EXTENSION'),
  ('_lzma',
   'C:\\Users\\ruanr\\AppData\\Local\\Programs\\Python\\Python39\\DLLs\\_lzma.pyd',
   'EXTENSION'),
  ('_bz2',
   'C:\\Users\\ruanr\\AppData\\Local\\Programs\\Python\\Python39\\DLLs\\_bz2.pyd',
   'EXTENSION'),
  ('_uuid',
   'C:\\Users\\ruanr\\AppData\\Local\\Programs\\Python\\Python39\\DLLs\\_uuid.pyd',
   'EXTENSION'),
  ('pymssql._mssql',
   'C:\\Users\\ruanr\\AppData\\Local\\Programs\\Python\\Python39\\lib\\site-packages\\pymssql\\_mssql.cp39-win_amd64.pyd',
   'EXTENSION'),
  ('pymssql._pymssql',
   'C:\\Users\\ruanr\\AppData\\Local\\Programs\\Python\\Python39\\lib\\site-packages\\pymssql\\_pymssql.cp39-win_amd64.pyd',
   'EXTENSION'),
  ('simplejson._speedups',
   'C:\\Users\\ruanr\\AppData\\Local\\Programs\\Python\\Python39\\lib\\site-packages\\simplejson\\_speedups.cp39-win_amd64.pyd',
   'EXTENSION'),
  ('_cffi_backend',
   'C:\\Users\\ruanr\\AppData\\Local\\Programs\\Python\\Python39\\lib\\site-packages\\_cffi_backend.cp39-win_amd64.pyd',
   'EXTENSION'),
  ('cryptography.hazmat.bindings._openssl',
   'C:\\Users\\ruanr\\AppData\\Local\\Programs\\Python\\Python39\\lib\\site-packages\\cryptography\\hazmat\\bindings\\_openssl.pyd',
   'EXTENSION'),
  ('cryptography.hazmat.bindings._rust',
   'C:\\Users\\ruanr\\AppData\\Local\\Programs\\Python\\Python39\\lib\\site-packages\\cryptography\\hazmat\\bindings\\_rust.pyd',
   'EXTENSION'),
  ('regex._regex',
   'C:\\Users\\ruanr\\AppData\\Local\\Programs\\Python\\Python39\\lib\\site-packages\\regex\\_regex.cp39-win_amd64.pyd',
   'EXTENSION'),
  ('fitz._fitz',
   'C:\\Users\\ruanr\\AppData\\Local\\Programs\\Python\\Python39\\lib\\site-packages\\fitz\\_fitz.pyd',
   'EXTENSION'),
  ('bson._cbson',
   'C:\\Users\\ruanr\\AppData\\Local\\Programs\\Python\\Python39\\lib\\site-packages\\bson\\_cbson.cp39-win_amd64.pyd',
   'EXTENSION'),
  ('pymongo._cmessage',
   'C:\\Users\\ruanr\\AppData\\Local\\Programs\\Python\\Python39\\lib\\site-packages\\pymongo\\_cmessage.cp39-win_amd64.pyd',
   'EXTENSION'),
  ('libssl-1_1.dll',
   'C:\\Users\\ruanr\\AppData\\Local\\Programs\\Python\\Python39\\DLLs\\libssl-1_1.dll',
   'BINARY'),
  ('libcrypto-1_1.dll',
   'C:\\Users\\ruanr\\AppData\\Local\\Programs\\Python\\Python39\\DLLs\\libcrypto-1_1.dll',
   'BINARY'),
  ('libffi-7.dll',
   'C:\\Users\\ruanr\\AppData\\Local\\Programs\\Python\\Python39\\DLLs\\libffi-7.dll',
   'BINARY'),
  ('python3.dll',
   'C:\\Users\\ruanr\\AppData\\Local\\Programs\\Python\\Python39\\python3.dll',
   'BINARY'),
  ('base_library.zip',
   'C:\\Users\\ruanr\\Documents\\Viseu\\R5\\RPA\\orquestrador-fgts-simulador\\build\\scheduler\\base_library.zip',
   'DATA'),
  ('cryptography-36.0.0.dist-info\\WHEEL',
   'c:\\users\\ruanr\\appdata\\local\\programs\\python\\python39\\lib\\site-packages\\cryptography-36.0.0.dist-info\\WHEEL',
   'DATA'),
  ('selenium\\webdriver\\common\\devtools\\v94\\py.typed',
   'C:\\Users\\ruanr\\AppData\\Local\\Programs\\Python\\Python39\\lib\\site-packages\\selenium\\webdriver\\common\\devtools\\v94\\py.typed',
   'DATA'),
  ('cryptography-36.0.0.dist-info\\LICENSE.APACHE',
   'c:\\users\\ruanr\\appdata\\local\\programs\\python\\python39\\lib\\site-packages\\cryptography-36.0.0.dist-info\\LICENSE.APACHE',
   'DATA'),
  ('selenium\\webdriver\\remote\\isDisplayed.js',
   'C:\\Users\\ruanr\\AppData\\Local\\Programs\\Python\\Python39\\lib\\site-packages\\selenium\\webdriver\\remote\\isDisplayed.js',
   'DATA'),
  ('certifi\\cacert.pem',
   'C:\\Users\\ruanr\\AppData\\Local\\Programs\\Python\\Python39\\lib\\site-packages\\certifi\\cacert.pem',
   'DATA'),
  ('cryptography-36.0.0.dist-info\\LICENSE',
   'c:\\users\\ruanr\\appdata\\local\\programs\\python\\python39\\lib\\site-packages\\cryptography-36.0.0.dist-info\\LICENSE',
   'DATA'),
  ('cryptography-36.0.0.dist-info\\RECORD',
   'c:\\users\\ruanr\\appdata\\local\\programs\\python\\python39\\lib\\site-packages\\cryptography-36.0.0.dist-info\\RECORD',
   'DATA'),
  ('cryptography-36.0.0.dist-info\\INSTALLER',
   'c:\\users\\ruanr\\appdata\\local\\programs\\python\\python39\\lib\\site-packages\\cryptography-36.0.0.dist-info\\INSTALLER',
   'DATA'),
  ('selenium\\webdriver\\common\\mutation-listener.js',
   'C:\\Users\\ruanr\\AppData\\Local\\Programs\\Python\\Python39\\lib\\site-packages\\selenium\\webdriver\\common\\mutation-listener.js',
   'DATA'),
  ('selenium\\webdriver\\common\\devtools\\v96\\py.typed',
   'C:\\Users\\ruanr\\AppData\\Local\\Programs\\Python\\Python39\\lib\\site-packages\\selenium\\webdriver\\common\\devtools\\v96\\py.typed',
   'DATA'),
  ('cryptography-36.0.0.dist-info\\LICENSE.PSF',
   'c:\\users\\ruanr\\appdata\\local\\programs\\python\\python39\\lib\\site-packages\\cryptography-36.0.0.dist-info\\LICENSE.PSF',
   'DATA'),
  ('selenium\\webdriver\\remote\\findElements.js',
   'C:\\Users\\ruanr\\AppData\\Local\\Programs\\Python\\Python39\\lib\\site-packages\\selenium\\webdriver\\remote\\findElements.js',
   'DATA'),
  ('selenium\\webdriver\\common\\devtools\\v85\\py.typed',
   'C:\\Users\\ruanr\\AppData\\Local\\Programs\\Python\\Python39\\lib\\site-packages\\selenium\\webdriver\\common\\devtools\\v85\\py.typed',
   'DATA'),
  ('cryptography-36.0.0.dist-info\\METADATA',
   'c:\\users\\ruanr\\appdata\\local\\programs\\python\\python39\\lib\\site-packages\\cryptography-36.0.0.dist-info\\METADATA',
   'DATA'),
  ('selenium\\webdriver\\remote\\getAttribute.js',
   'C:\\Users\\ruanr\\AppData\\Local\\Programs\\Python\\Python39\\lib\\site-packages\\selenium\\webdriver\\remote\\getAttribute.js',
   'DATA'),
  ('selenium\\webdriver\\firefox\\webdriver_prefs.json',
   'C:\\Users\\ruanr\\AppData\\Local\\Programs\\Python\\Python39\\lib\\site-packages\\selenium\\webdriver\\firefox\\webdriver_prefs.json',
   'DATA'),
  ('cryptography-36.0.0.dist-info\\LICENSE.BSD',
   'c:\\users\\ruanr\\appdata\\local\\programs\\python\\python39\\lib\\site-packages\\cryptography-36.0.0.dist-info\\LICENSE.BSD',
   'DATA'),
  ('selenium\\webdriver\\common\\devtools\\v95\\py.typed',
   'C:\\Users\\ruanr\\AppData\\Local\\Programs\\Python\\Python39\\lib\\site-packages\\selenium\\webdriver\\common\\devtools\\v95\\py.typed',
   'DATA'),
  ('cryptography-36.0.0.dist-info\\top_level.txt',
   'c:\\users\\ruanr\\appdata\\local\\programs\\python\\python39\\lib\\site-packages\\cryptography-36.0.0.dist-info\\top_level.txt',
   'DATA')],
 False,
 False,
 False,
 [],
 None,
 None,
 None)
